cska32/isim.log
ISim log file
Running: /home/rcetin/workspace/ISE_workspace/cska32/cska32_tb_isim_beh.exe -intstyle ise -gui -tclbatch isim.cmd -wdb /home/rcetin/workspace/ISE_workspace/cska32/cska32_tb_isim_beh.wdb 
ISim P.20131013 (signature 0xfbc00daa)
----------------------------------------------------------------------
INFO:Security:51 - The XILINXD_LICENSE_FILE environment variable is not set.
INFO:Security:53 - The LM_LICENSE_FILE environment variable is not set.
INFO:Security:68a - user is rcetin, on host unknown.
WARNING:Security:43 - No license file was found in the standard Xilinx license directory.
WARNING:Security:44 - Since no license file was found,
       please run the Xilinx License Configuration Manager
       (xlcm or "Manage Xilinx Licenses")
       to assist in obtaining a license.
ERROR:Security:14 - No feature was available for 'ISIM'.

No such feature exists.
Feature:       ISIM
License path:  /home/rcetin/.Xilinx/*.lic:/opt/Xilinx/14.7/ISE_DS/ISE//data/*.lic:/opt/Xilinx/14.7/ISE_DS/ISE//coregen/core_licenses/Xilinx.lic:/opt/Xilinx/14.7/ISE_DS/ISE//coregen/core_licenses/XilinxFree.lic:
FLEXnet Licensing error:-5,357
For further information, refer to the FLEXnet Licensing documentation,
available at "www.flexerasoftware.com".
----------------------------------------------------------------------
WARNING: A full ISim License cannot be checked out due to the issues listed above. Please use Xilinx License Configuration Manager to fix these issues in order to check out a full ISim license.
WARNING: ISim will run in Lite mode. Please refer to the ISim documentation for more information on the differences between the Lite and the Full version.
This is a Lite version of ISim.
Time resolution is 1 fs
# onerror resume
# wave add /
# run 200 ns
Simulator is doing circuit initialization process.
                   0 << Starting the Simulation >>
Finished circuit initialization process.
time=0.000 ps, A=00000000000000000000000000000000, B=00000000000000000000000000000000, Cin=0 : Sum= xxxxxxxxxxxxxxxxxxxxxxxxxxxxxxxx, Cout=x

time=613.920 ps, A=00000000000000000000000000000000, B=00000000000000000000000000000000, Cin=0 : Sum= xxxxxxxxxxxxxxxxxxxxxxxxxxxxxxx0, Cout=x

time=1464.220 ps, A=00000000000000000000000000000000, B=00000000000000000000000000000000, Cin=0 : Sum= 000x000x000x000x000x000x000x0000, Cout=x

time=2007.560 ps, A=00000000000000000000000000000000, B=00000000000000000000000000000000, Cin=0 : Sum= 000x000x000x000x000x000x000x0000, Cout=0

time=2314.520 ps, A=00000000000000000000000000000000, B=00000000000000000000000000000000, Cin=0 : Sum= 00000000000000000000000000000000, Cout=0

time=50000.000 ps, A=00000000000111110000000000011111, B=00000000000001100000000000001100, Cin=0 : Sum= 00000000000000000000000000000000, Cout=0

time=50701.020 ps, A=00000000000111110000000000011111, B=00000000000001100000000000001100, Cin=0 : Sum= 00000000000110010000000000010011, Cout=0

time=51218.270 ps, A=00000000000111110000000000011111, B=00000000000001100000000000001100, Cin=0 : Sum= 00000000000100010000000000010011, Cout=0

time=51261.820 ps, A=00000000000111110000000000011111, B=00000000000001100000000000001100, Cin=0 : Sum= 00000000000101010000000000011011, Cout=0

time=52129.580 ps, A=00000000000111110000000000011111, B=00000000000001100000000000001100, Cin=0 : Sum= 00000000000101010000000000001011, Cout=0

time=53040.890 ps, A=00000000000111110000000000011111, B=00000000000001100000000000001100, Cin=0 : Sum= 00000000000001010000000000001011, Cout=0

time=53084.440 ps, A=00000000000111110000000000011111, B=00000000000001100000000000001100, Cin=0 : Sum= 00000000000001010000000000101011, Cout=0

time=53995.750 ps, A=00000000000111110000000000011111, B=00000000000001100000000000001100, Cin=0 : Sum= 00000000001001010000000000101011, Cout=0

time=100000.000 ps, A=11111111111111111111111111111111, B=00000000000000000000000000000000, Cin=1 : Sum= 00000000001001010000000000101011, Cout=0

time=100306.960 ps, A=11111111111111111111111111111111, B=00000000000000000000000000000000, Cin=1 : Sum= 00000000001001010000000000101010, Cout=0

time=100657.470 ps, A=11111111111111111111111111111111, B=00000000000000000000000000000000, Cin=1 : Sum= 00000000000000010000000000000010, Cout=0

time=100701.020 ps, A=11111111111111111111111111111111, B=00000000000000000000000000000000, Cin=1 : Sum= 11111111110000111111111111000110, Cout=0

time=101200.810 ps, A=11111111111111111111111111111111, B=00000000000000000000000000000000, Cin=1 : Sum= 11111111110011111111111111001110, Cout=0

time=101218.270 ps, A=11111111111111111111111111111111, B=00000000000000000000000000000000, Cin=1 : Sum= 11111111110011111111111111001100, Cout=0

time=101568.780 ps, A=11111111111111111111111111111111, B=00000000000000000000000000000000, Cin=1 : Sum= 11111111100011111111111110001100, Cout=0

time=102044.950 ps, A=11111111111111111111111111111111, B=00000000000000000000000000000000, Cin=1 : Sum= 11111110100011111111111010001100, Cout=0

time=102129.580 ps, A=11111111111111111111111111111111, B=00000000000000000000000000000000, Cin=1 : Sum= 11111110100011111111111010001000, Cout=0

time=102391.350 ps, A=11111111111111111111111111111111, B=00000000000000000000000000000000, Cin=1 : Sum= 11111110100111111111111010001000, Cout=0

time=102480.090 ps, A=11111111111111111111111111111111, B=00000000000000000000000000000000, Cin=1 : Sum= 11111110000111111111111000001000, Cout=0

time=102956.260 ps, A=11111111111111111111111111111111, B=00000000000000000000000000000000, Cin=1 : Sum= 11101100000111111110110000001000, Cout=0

time=103040.890 ps, A=11111111111111111111111111111111, B=00000000000000000000000000000000, Cin=1 : Sum= 11101100000111111110110000000000, Cout=0

time=103241.650 ps, A=11111111111111111111111111111111, B=00000000000000000000000000000000, Cin=1 : Sum= 11101101001111111110110000000000, Cout=0

time=103560.610 ps, A=11111111111111111111111111111111, B=00000000000000000000000000000000, Cin=1 : Sum= 11101101001111111110110000000000, Cout=1

time=103867.570 ps, A=11111111111111111111111111111111, B=00000000000000000000000000000000, Cin=1 : Sum= 11001001001111101100100000000000, Cout=1

time=104091.950 ps, A=11111111111111111111111111111111, B=00000000000000000000000000000000, Cin=1 : Sum= 11011011011111101100100000000000, Cout=1

time=104591.740 ps, A=11111111111111111111111111111111, B=00000000000000000000000000000000, Cin=1 : Sum= 11011011011111101100100000000000, Cout=0

time=104778.880 ps, A=11111111111111111111111111111111, B=00000000000000000000000000000000, Cin=1 : Sum= 10010011011011001000000000000000, Cout=0

time=104942.250 ps, A=11111111111111111111111111111111, B=00000000000000000000000000000000, Cin=1 : Sum= 10110111111011001000000000000000, Cout=0

time=105690.190 ps, A=11111111111111111111111111111111, B=00000000000000000000000000000000, Cin=1 : Sum= 00110110110010000000000000000000, Cout=0

time=105792.550 ps, A=11111111111111111111111111111111, B=00000000000000000000000000000000, Cin=1 : Sum= 01111110110010000000000000000000, Cout=0

time=106601.500 ps, A=11111111111111111111111111111111, B=00000000000000000000000000000000, Cin=1 : Sum= 01101100100000000000000000000000, Cout=0

time=106642.850 ps, A=11111111111111111111111111111111, B=00000000000000000000000000000000, Cin=1 : Sum= 11101100100000000000000000000000, Cout=0

time=107205.850 ps, A=11111111111111111111111111111111, B=00000000000000000000000000000000, Cin=1 : Sum= 11101100100000000000000000000000, Cout=1

time=107512.810 ps, A=11111111111111111111111111111111, B=00000000000000000000000000000000, Cin=1 : Sum= 11001000000000000000000000000000, Cout=1

time=108424.120 ps, A=11111111111111111111111111111111, B=00000000000000000000000000000000, Cin=1 : Sum= 10000000000000000000000000000000, Cout=1

time=109335.430 ps, A=11111111111111111111111111111111, B=00000000000000000000000000000000, Cin=1 : Sum= 00000000000000000000000000000000, Cout=1

time=150000.000 ps, A=11111111111111111111111111111111, B=00000000000000000000000000000000, Cin=0 : Sum= 00000000000000000000000000000000, Cout=1

time=150350.510 ps, A=11111111111111111111111111111111, B=00000000000000000000000000000000, Cin=0 : Sum= 00000000000000000000000000000001, Cout=1

time=151200.810 ps, A=11111111111111111111111111111111, B=00000000000000000000000000000000, Cin=0 : Sum= 00000000000000000000000000010011, Cout=1

time=152051.110 ps, A=11111111111111111111111111111111, B=00000000000000000000000000000000, Cin=0 : Sum= 00000000000000000000000100110111, Cout=1

time=152901.410 ps, A=11111111111111111111111111111111, B=00000000000000000000000000000000, Cin=0 : Sum= 00000000000000000001001101111111, Cout=1

time=153751.710 ps, A=11111111111111111111111111111111, B=00000000000000000000000000000000, Cin=0 : Sum= 00000000000000010011011111111111, Cout=1

time=154602.010 ps, A=11111111111111111111111111111111, B=00000000000000000000000000000000, Cin=0 : Sum= 00000000000100110111111111111111, Cout=1

time=155452.310 ps, A=11111111111111111111111111111111, B=00000000000000000000000000000000, Cin=0 : Sum= 00000001001101111111111111111111, Cout=1

time=156302.610 ps, A=11111111111111111111111111111111, B=00000000000000000000000000000000, Cin=0 : Sum= 00010011011111111111111111111111, Cout=1

time=156802.400 ps, A=11111111111111111111111111111111, B=00000000000000000000000000000000, Cin=0 : Sum= 00010011011111111111111111111111, Cout=0

time=157152.910 ps, A=11111111111111111111111111111111, B=00000000000000000000000000000000, Cin=0 : Sum= 00110111111111111111111111111111, Cout=0

time=158003.210 ps, A=11111111111111111111111111111111, B=00000000000000000000000000000000, Cin=0 : Sum= 01111111111111111111111111111111, Cout=0

time=158853.510 ps, A=11111111111111111111111111111111, B=00000000000000000000000000000000, Cin=0 : Sum= 11111111111111111111111111111111, Cout=0

# exit 0
