fa16/isim.log
ISim log file
Running: /home/rcetin/workspace/ISE_workspace/fa16/fa16_tb_isim_beh.exe -intstyle ise -gui -tclbatch isim.cmd -wdb /home/rcetin/workspace/ISE_workspace/fa16/fa16_tb_isim_beh.wdb 
ISim P.20131013 (signature 0xfbc00daa)
----------------------------------------------------------------------
INFO:Security:51 - The XILINXD_LICENSE_FILE environment variable is not set.
INFO:Security:53 - The LM_LICENSE_FILE environment variable is not set.
INFO:Security:68a - user is rcetin, on host unknown.
WARNING:Security:43 - No license file was found in the standard Xilinx license directory.
WARNING:Security:44 - Since no license file was found,
       please run the Xilinx License Configuration Manager
       (xlcm or "Manage Xilinx Licenses")
       to assist in obtaining a license.
ERROR:Security:14 - No feature was available for 'ISIM'.

No such feature exists.
Feature:       ISIM
License path:  /home/rcetin/.Xilinx/*.lic:/opt/Xilinx/14.7/ISE_DS/ISE//data/*.lic:/opt/Xilinx/14.7/ISE_DS/ISE//coregen/core_licenses/Xilinx.lic:/opt/Xilinx/14.7/ISE_DS/ISE//coregen/core_licenses/XilinxFree.lic:
FLEXnet Licensing error:-5,357
For further information, refer to the FLEXnet Licensing documentation,
available at "www.flexerasoftware.com".
----------------------------------------------------------------------
WARNING: A full ISim License cannot be checked out due to the issues listed above. Please use Xilinx License Configuration Manager to fix these issues in order to check out a full ISim license.
WARNING: ISim will run in Lite mode. Please refer to the ISim documentation for more information on the differences between the Lite and the Full version.
This is a Lite version of ISim.
Time resolution is 1 fs
# onerror resume
# wave add /
# run 10 ns
Simulator is doing circuit initialization process.
                   0 << Starting the Simulation >>
Finished circuit initialization process.
time=0.000 ps, A=0000000000000000, B=0000000000000000, Cin=0 : Sum= xxxxxxxxxxxxxxxx, Cout=x

time=68.000 ps, A=0000000000000000, B=0000000000000000, Cin=0 : Sum= xxxxxxxxxxxxxxx0, Cout=x

time=72.000 ps, A=0000000000000000, B=0000000000000000, Cin=0 : Sum= xxxxxxxxxxxxxx00, Cout=0

time=106.000 ps, A=0000000000000000, B=0000000000000000, Cin=0 : Sum= 0000000000000000, Cout=0

time=1000.000 ps, A=0000000000011111, B=0000000000001100, Cin=0 : Sum= 0000000000000000, Cout=0

time=1068.000 ps, A=0000000000011111, B=0000000000001100, Cin=0 : Sum= 0000000000000011, Cout=0

time=1072.000 ps, A=0000000000011111, B=0000000000001100, Cin=0 : Sum= 0000000000001011, Cout=0

time=1110.000 ps, A=0000000000011111, B=0000000000001100, Cin=0 : Sum= 0000000000101011, Cout=0

time=3000.000 ps, A=1100011000011111, B=0000000110001100, Cin=1 : Sum= 0000000000101011, Cout=0

time=3034.000 ps, A=1100011000011111, B=0000000110001100, Cin=1 : Sum= 0000000000101010, Cout=0

time=3068.000 ps, A=1100011000011111, B=0000000110001100, Cin=1 : Sum= 1100011110101010, Cout=0

time=3072.000 ps, A=1100011000011111, B=0000000110001100, Cin=1 : Sum= 1100011110101000, Cout=0

time=3110.000 ps, A=1100011000011111, B=0000000110001100, Cin=1 : Sum= 1100011110101100, Cout=0

time=4000.000 ps, A=1111111111111111, B=0000000000000000, Cin=1 : Sum= 1100011110101100, Cout=0

time=4068.000 ps, A=1111111111111111, B=0000000000000000, Cin=1 : Sum= 1111111111001000, Cout=0

time=4072.000 ps, A=1111111111111111, B=0000000000000000, Cin=1 : Sum= 1111111111011000, Cout=0

time=4106.000 ps, A=1111111111111111, B=0000000000000000, Cin=1 : Sum= 1111111110010000, Cout=0

time=4110.000 ps, A=1111111111111111, B=0000000000000000, Cin=1 : Sum= 1111111110110000, Cout=0

time=4144.000 ps, A=1111111111111111, B=0000000000000000, Cin=1 : Sum= 1111111100100000, Cout=0

time=4148.000 ps, A=1111111111111111, B=0000000000000000, Cin=1 : Sum= 1111111101100000, Cout=0

time=4182.000 ps, A=1111111111111111, B=0000000000000000, Cin=1 : Sum= 1111111001000000, Cout=0

time=4186.000 ps, A=1111111111111111, B=0000000000000000, Cin=1 : Sum= 1111111011000000, Cout=0

time=4220.000 ps, A=1111111111111111, B=0000000000000000, Cin=1 : Sum= 1111110010000000, Cout=0

time=4224.000 ps, A=1111111111111111, B=0000000000000000, Cin=1 : Sum= 1111110110000000, Cout=0

time=4258.000 ps, A=1111111111111111, B=0000000000000000, Cin=1 : Sum= 1111100100000000, Cout=0

time=4262.000 ps, A=1111111111111111, B=0000000000000000, Cin=1 : Sum= 1111101100000000, Cout=0

time=4296.000 ps, A=1111111111111111, B=0000000000000000, Cin=1 : Sum= 1111001000000000, Cout=0

time=4300.000 ps, A=1111111111111111, B=0000000000000000, Cin=1 : Sum= 1111011000000000, Cout=0

time=4334.000 ps, A=1111111111111111, B=0000000000000000, Cin=1 : Sum= 1110010000000000, Cout=0

time=4338.000 ps, A=1111111111111111, B=0000000000000000, Cin=1 : Sum= 1110110000000000, Cout=0

time=4372.000 ps, A=1111111111111111, B=0000000000000000, Cin=1 : Sum= 1100100000000000, Cout=0

time=4376.000 ps, A=1111111111111111, B=0000000000000000, Cin=1 : Sum= 1101100000000000, Cout=0

time=4410.000 ps, A=1111111111111111, B=0000000000000000, Cin=1 : Sum= 1001000000000000, Cout=0

time=4414.000 ps, A=1111111111111111, B=0000000000000000, Cin=1 : Sum= 1011000000000000, Cout=0

time=4448.000 ps, A=1111111111111111, B=0000000000000000, Cin=1 : Sum= 0010000000000000, Cout=0

time=4452.000 ps, A=1111111111111111, B=0000000000000000, Cin=1 : Sum= 0110000000000000, Cout=1

time=4486.000 ps, A=1111111111111111, B=0000000000000000, Cin=1 : Sum= 0100000000000000, Cout=1

time=4490.000 ps, A=1111111111111111, B=0000000000000000, Cin=1 : Sum= 1100000000000000, Cout=1

time=4494.000 ps, A=1111111111111111, B=0000000000000000, Cin=1 : Sum= 1100000000000000, Cout=0

time=4524.000 ps, A=1111111111111111, B=0000000000000000, Cin=1 : Sum= 1000000000000000, Cout=0

time=4562.000 ps, A=1111111111111111, B=0000000000000000, Cin=1 : Sum= 0000000000000000, Cout=0

time=4566.000 ps, A=1111111111111111, B=0000000000000000, Cin=1 : Sum= 0000000000000000, Cout=1

# exit 0
