cia32/isim.log
ISim log file
Running: /home/rcetin/workspace/ISE_workspace/cia32/cia32_tb_isim_beh.exe -intstyle ise -gui -tclbatch isim.cmd -wdb /home/rcetin/workspace/ISE_workspace/cia32/cia32_tb_isim_beh.wdb 
ISim P.20131013 (signature 0xfbc00daa)
----------------------------------------------------------------------
INFO:Security:51 - The XILINXD_LICENSE_FILE environment variable is not set.
INFO:Security:53 - The LM_LICENSE_FILE environment variable is not set.
INFO:Security:68a - user is rcetin, on host unknown.
WARNING:Security:43 - No license file was found in the standard Xilinx license directory.
WARNING:Security:44 - Since no license file was found,
       please run the Xilinx License Configuration Manager
       (xlcm or "Manage Xilinx Licenses")
       to assist in obtaining a license.
ERROR:Security:14 - No feature was available for 'ISIM'.

No such feature exists.
Feature:       ISIM
License path:  /home/rcetin/.Xilinx/*.lic:/opt/Xilinx/14.7/ISE_DS/ISE//data/*.lic:/opt/Xilinx/14.7/ISE_DS/ISE//coregen/core_licenses/Xilinx.lic:/opt/Xilinx/14.7/ISE_DS/ISE//coregen/core_licenses/XilinxFree.lic:
FLEXnet Licensing error:-5,357
For further information, refer to the FLEXnet Licensing documentation,
available at "www.flexerasoftware.com".
----------------------------------------------------------------------
WARNING: A full ISim License cannot be checked out due to the issues listed above. Please use Xilinx License Configuration Manager to fix these issues in order to check out a full ISim license.
WARNING: ISim will run in Lite mode. Please refer to the ISim documentation for more information on the differences between the Lite and the Full version.
This is a Lite version of ISim.
Time resolution is 1 fs
# onerror resume
# wave add /
# run 200 ns
Simulator is doing circuit initialization process.
                   0 << Starting the Simulation >>
Finished circuit initialization process.
time=0.000 ps, A=00000000000000000000000000000000, B=00000000000000000000000000000000, Cin=0 : Sum= xxxxxxxxxxxxxxxxxxxxxxxxxxxxxxxx, Cout=x

time=613.920 ps, A=00000000000000000000000000000000, B=00000000000000000000000000000000, Cin=0 : Sum= xxxxxxxxxxxxxxxxxxxxxxxxxxxxxxx0, Cout=x

time=1464.220 ps, A=00000000000000000000000000000000, B=00000000000000000000000000000000, Cin=0 : Sum= xxxxxxxxxxxxxxxxxxxxxxxxxxx00000, Cout=x

time=1771.180 ps, A=00000000000000000000000000000000, B=00000000000000000000000000000000, Cin=0 : Sum= x00xx00xx00xx00xx00xx00xx0000000, Cout=x

time=2171.740 ps, A=00000000000000000000000000000000, B=00000000000000000000000000000000, Cin=0 : Sum= 000x000x000x000x000x000x00000000, Cout=x

time=2314.520 ps, A=00000000000000000000000000000000, B=00000000000000000000000000000000, Cin=0 : Sum= 000x000x000x000x000x000x00000000, Cout=0

time=2621.480 ps, A=00000000000000000000000000000000, B=00000000000000000000000000000000, Cin=0 : Sum= 00000000000000000000000000000000, Cout=0

time=50000.000 ps, A=00000000000111110000000000011111, B=00000000000001100000000000001100, Cin=0 : Sum= 00000000000000000000000000000000, Cout=0

time=50701.020 ps, A=00000000000111110000000000011111, B=00000000000001100000000000001100, Cin=0 : Sum= 00000000000000000000000000000011, Cout=0

time=51051.530 ps, A=00000000000111110000000000011111, B=00000000000001100000000000001100, Cin=0 : Sum= 00000000000110010000000000010011, Cout=0

time=51261.820 ps, A=00000000000111110000000000011111, B=00000000000001100000000000001100, Cin=0 : Sum= 00000000000110010000000000011011, Cout=0

time=51525.230 ps, A=00000000000111110000000000011111, B=00000000000001100000000000001100, Cin=0 : Sum= 00000000000100010000000000011011, Cout=0

time=51612.330 ps, A=00000000000111110000000000011111, B=00000000000001100000000000001100, Cin=0 : Sum= 00000000000101010000000000011011, Cout=0

time=51714.250 ps, A=00000000000111110000000000011111, B=00000000000001100000000000001100, Cin=0 : Sum= 00000000000101010000000000111011, Cout=0

time=52588.460 ps, A=00000000000111110000000000011111, B=00000000000001100000000000001100, Cin=0 : Sum= 00000000000001010000000000111011, Cout=0

time=53084.440 ps, A=00000000000111110000000000011111, B=00000000000001100000000000001100, Cin=0 : Sum= 00000000001001010000000000111011, Cout=0

time=100000.000 ps, A=11111111111111111111111111111111, B=00000000000000000000000000000000, Cin=1 : Sum= 00000000001001010000000000111011, Cout=0

time=100306.960 ps, A=11111111111111111111111111111111, B=00000000000000000000000000000000, Cin=1 : Sum= 00000000001001010000000000111010, Cout=0

time=100657.470 ps, A=11111111111111111111111111111111, B=00000000000000000000000000000000, Cin=1 : Sum= 00000000001001010000000000110010, Cout=0

time=100701.020 ps, A=11111111111111111111111111111111, B=00000000000000000000000000000000, Cin=1 : Sum= 00000000001001010000000000110110, Cout=0

time=100964.430 ps, A=11111111111111111111111111111111, B=00000000000000000000000000000000, Cin=1 : Sum= 00000000001000010000000000110110, Cout=0

time=101007.980 ps, A=11111111111111111111111111111111, B=00000000000000000000000000000000, Cin=1 : Sum= 00000000000000010000000000010110, Cout=0

time=101051.530 ps, A=11111111111111111111111111111111, B=00000000000000000000000000000000, Cin=1 : Sum= 11111111110000111111111111010110, Cout=0

time=101200.810 ps, A=11111111111111111111111111111111, B=00000000000000000000000000000000, Cin=1 : Sum= 11111111110000111111111111011110, Cout=0

time=101218.270 ps, A=11111111111111111111111111111111, B=00000000000000000000000000000000, Cin=1 : Sum= 11111111110000111111111111011100, Cout=0

time=101460.410 ps, A=11111111111111111111111111111111, B=00000000000000000000000000000000, Cin=1 : Sum= 11111111100000111111111110011100, Cout=0

time=101551.320 ps, A=11111111111111111111111111111111, B=00000000000000000000000000000000, Cin=1 : Sum= 11111111100011111111111110011100, Cout=0

time=101601.370 ps, A=11111111111111111111111111111111, B=00000000000000000000000000000000, Cin=1 : Sum= 11111111100011111111111110111100, Cout=0

time=101912.840 ps, A=11111111111111111111111111111111, B=00000000000000000000000000000000, Cin=1 : Sum= 11111111000011111111111100111100, Cout=0

time=102001.930 ps, A=11111111111111111111111111111111, B=00000000000000000000000000000000, Cin=1 : Sum= 11111111000011111111111101111100, Cout=0

time=102129.580 ps, A=11111111111111111111111111111111, B=00000000000000000000000000000000, Cin=1 : Sum= 11111111000011111111111101111000, Cout=0

time=102402.490 ps, A=11111111111111111111111111111111, B=00000000000000000000000000000000, Cin=1 : Sum= 11111111000011111111111111111000, Cout=0

time=102500.850 ps, A=11111111111111111111111111111111, B=00000000000000000000000000000000, Cin=1 : Sum= 11111111000111111111111111111000, Cout=0

time=102824.150 ps, A=11111111111111111111111111111111, B=00000000000000000000000000000000, Cin=1 : Sum= 11111110000111111111111011111000, Cout=0

time=102901.410 ps, A=11111111111111111111111111111111, B=00000000000000000000000000000000, Cin=1 : Sum= 11111110001111111111111011111000, Cout=0

time=103040.890 ps, A=11111111111111111111111111111111, B=00000000000000000000000000000000, Cin=1 : Sum= 11111110001111111111111011110000, Cout=0

time=103276.580 ps, A=11111111111111111111111111111111, B=00000000000000000000000000000000, Cin=1 : Sum= 11111100001111111111110011110000, Cout=0

time=103301.970 ps, A=11111111111111111111111111111111, B=00000000000000000000000000000000, Cin=1 : Sum= 11111100011111111111110011110000, Cout=0

time=103702.530 ps, A=11111111111111111111111111111111, B=00000000000000000000000000000000, Cin=1 : Sum= 11111100111111111111110011110000, Cout=0

time=103729.010 ps, A=11111111111111111111111111111111, B=00000000000000000000000000000000, Cin=1 : Sum= 11111000111111111111100011110000, Cout=0

time=103952.200 ps, A=11111111111111111111111111111111, B=00000000000000000000000000000000, Cin=1 : Sum= 11111000111111111111100011100000, Cout=0

time=104181.440 ps, A=11111111111111111111111111111111, B=00000000000000000000000000000000, Cin=1 : Sum= 11110000111111111111000011100000, Cout=0

time=104404.630 ps, A=11111111111111111111111111111111, B=00000000000000000000000000000000, Cin=1 : Sum= 11110000111111111111000011000000, Cout=0

time=104552.830 ps, A=11111111111111111111111111111111, B=00000000000000000000000000000000, Cin=1 : Sum= 11110001111111111111000011000000, Cout=0

time=104857.060 ps, A=11111111111111111111111111111111, B=00000000000000000000000000000000, Cin=1 : Sum= 11110001111111111111000010000000, Cout=0

time=104953.390 ps, A=11111111111111111111111111111111, B=00000000000000000000000000000000, Cin=1 : Sum= 11110011111111111111000010000000, Cout=0

time=105092.750 ps, A=11111111111111111111111111111111, B=00000000000000000000000000000000, Cin=1 : Sum= 11100011111111111110000010000000, Cout=0

time=105309.490 ps, A=11111111111111111111111111111111, B=00000000000000000000000000000000, Cin=1 : Sum= 11100011111111111110000000000000, Cout=0

time=105353.950 ps, A=11111111111111111111111111111111, B=00000000000000000000000000000000, Cin=1 : Sum= 11100111111111111110000000000000, Cout=0

time=105545.180 ps, A=11111111111111111111111111111111, B=00000000000000000000000000000000, Cin=1 : Sum= 11000111111111111100000000000000, Cout=0

time=105754.510 ps, A=11111111111111111111111111111111, B=00000000000000000000000000000000, Cin=1 : Sum= 11001111111111111100000000000000, Cout=0

time=105997.610 ps, A=11111111111111111111111111111111, B=00000000000000000000000000000000, Cin=1 : Sum= 10001111111111111000000000000000, Cout=0

time=106450.040 ps, A=11111111111111111111111111111111, B=00000000000000000000000000000000, Cin=1 : Sum= 00001111111111110000000000000000, Cout=0

time=106604.810 ps, A=11111111111111111111111111111111, B=00000000000000000000000000000000, Cin=1 : Sum= 00011111111111110000000000000000, Cout=0

time=107005.370 ps, A=11111111111111111111111111111111, B=00000000000000000000000000000000, Cin=1 : Sum= 00111111111111110000000000000000, Cout=0

time=107054.390 ps, A=11111111111111111111111111111111, B=00000000000000000000000000000000, Cin=1 : Sum= 00111111111111110000000000000000, Cout=1

time=107361.350 ps, A=11111111111111111111111111111111, B=00000000000000000000000000000000, Cin=1 : Sum= 00111111111111100000000000000000, Cout=1

time=107405.930 ps, A=11111111111111111111111111111111, B=00000000000000000000000000000000, Cin=1 : Sum= 01111111111111100000000000000000, Cout=1

time=107806.490 ps, A=11111111111111111111111111111111, B=00000000000000000000000000000000, Cin=1 : Sum= 11111111111111100000000000000000, Cout=1

time=107813.780 ps, A=11111111111111111111111111111111, B=00000000000000000000000000000000, Cin=1 : Sum= 11111111111111000000000000000000, Cout=1

time=108266.210 ps, A=11111111111111111111111111111111, B=00000000000000000000000000000000, Cin=1 : Sum= 11111111111110000000000000000000, Cout=1

time=108306.280 ps, A=11111111111111111111111111111111, B=00000000000000000000000000000000, Cin=1 : Sum= 11111111111110000000000000000000, Cout=0

time=108718.640 ps, A=11111111111111111111111111111111, B=00000000000000000000000000000000, Cin=1 : Sum= 11111111111100000000000000000000, Cout=0

time=109629.950 ps, A=11111111111111111111111111111111, B=00000000000000000000000000000000, Cin=1 : Sum= 11111111111000000000000000000000, Cout=0

time=110082.380 ps, A=11111111111111111111111111111111, B=00000000000000000000000000000000, Cin=1 : Sum= 11111111110000000000000000000000, Cout=0

time=110534.810 ps, A=11111111111111111111111111111111, B=00000000000000000000000000000000, Cin=1 : Sum= 11111111100000000000000000000000, Cout=0

time=110987.240 ps, A=11111111111111111111111111111111, B=00000000000000000000000000000000, Cin=1 : Sum= 11111111000000000000000000000000, Cout=0

time=111898.550 ps, A=11111111111111111111111111111111, B=00000000000000000000000000000000, Cin=1 : Sum= 11111110000000000000000000000000, Cout=0

time=112350.980 ps, A=11111111111111111111111111111111, B=00000000000000000000000000000000, Cin=1 : Sum= 11111100000000000000000000000000, Cout=0

time=112803.410 ps, A=11111111111111111111111111111111, B=00000000000000000000000000000000, Cin=1 : Sum= 11111000000000000000000000000000, Cout=0

time=113255.840 ps, A=11111111111111111111111111111111, B=00000000000000000000000000000000, Cin=1 : Sum= 11110000000000000000000000000000, Cout=0

time=114167.150 ps, A=11111111111111111111111111111111, B=00000000000000000000000000000000, Cin=1 : Sum= 11100000000000000000000000000000, Cout=0

time=114619.580 ps, A=11111111111111111111111111111111, B=00000000000000000000000000000000, Cin=1 : Sum= 11000000000000000000000000000000, Cout=0

time=115072.010 ps, A=11111111111111111111111111111111, B=00000000000000000000000000000000, Cin=1 : Sum= 10000000000000000000000000000000, Cout=0

time=115524.440 ps, A=11111111111111111111111111111111, B=00000000000000000000000000000000, Cin=1 : Sum= 00000000000000000000000000000000, Cout=0

time=116128.790 ps, A=11111111111111111111111111111111, B=00000000000000000000000000000000, Cin=1 : Sum= 00000000000000000000000000000000, Cout=1

time=150000.000 ps, A=11111111111111111111111111111111, B=00000000000000000000000000000000, Cin=0 : Sum= 00000000000000000000000000000000, Cout=1

time=150350.510 ps, A=11111111111111111111111111111111, B=00000000000000000000000000000000, Cin=0 : Sum= 00000000000000000000000000000001, Cout=1

time=151200.810 ps, A=11111111111111111111111111111111, B=00000000000000000000000000000000, Cin=0 : Sum= 00000000000000000000000000000011, Cout=1

time=152051.110 ps, A=11111111111111111111111111111111, B=00000000000000000000000000000000, Cin=0 : Sum= 00000000000000000000000000000111, Cout=1

time=152901.410 ps, A=11111111111111111111111111111111, B=00000000000000000000000000000000, Cin=0 : Sum= 00000000000000000000000000001111, Cout=1

time=153751.710 ps, A=11111111111111111111111111111111, B=00000000000000000000000000000000, Cin=0 : Sum= 00000000000000000000000000011111, Cout=1

time=154152.270 ps, A=11111111111111111111111111111111, B=00000000000000000000000000000000, Cin=0 : Sum= 00000000000000000000000000111111, Cout=1

time=154552.830 ps, A=11111111111111111111111111111111, B=00000000000000000000000000000000, Cin=0 : Sum= 00000000000000000000000001111111, Cout=1

time=154953.390 ps, A=11111111111111111111111111111111, B=00000000000000000000000000000000, Cin=0 : Sum= 00000000000000000000000011111111, Cout=1

time=155803.690 ps, A=11111111111111111111111111111111, B=00000000000000000000000000000000, Cin=0 : Sum= 00000000000000000000000111111111, Cout=1

time=156204.250 ps, A=11111111111111111111111111111111, B=00000000000000000000000000000000, Cin=0 : Sum= 00000000000000000000001111111111, Cout=1

time=156604.810 ps, A=11111111111111111111111111111111, B=00000000000000000000000000000000, Cin=0 : Sum= 00000000000000000000011111111111, Cout=1

time=157005.370 ps, A=11111111111111111111111111111111, B=00000000000000000000000000000000, Cin=0 : Sum= 00000000000000000000111111111111, Cout=1

time=157855.670 ps, A=11111111111111111111111111111111, B=00000000000000000000000000000000, Cin=0 : Sum= 00000000000000000001111111111111, Cout=1

time=158256.230 ps, A=11111111111111111111111111111111, B=00000000000000000000000000000000, Cin=0 : Sum= 00000000000000000011111111111111, Cout=1

time=158656.790 ps, A=11111111111111111111111111111111, B=00000000000000000000000000000000, Cin=0 : Sum= 00000000000000000111111111111111, Cout=1

time=159057.350 ps, A=11111111111111111111111111111111, B=00000000000000000000000000000000, Cin=0 : Sum= 00000000000000001111111111111111, Cout=1

time=159907.650 ps, A=11111111111111111111111111111111, B=00000000000000000000000000000000, Cin=0 : Sum= 00000000000000011111111111111111, Cout=1

time=160308.210 ps, A=11111111111111111111111111111111, B=00000000000000000000000000000000, Cin=0 : Sum= 00000000000000111111111111111111, Cout=1

time=160708.770 ps, A=11111111111111111111111111111111, B=00000000000000000000000000000000, Cin=0 : Sum= 00000000000001111111111111111111, Cout=1

time=161109.330 ps, A=11111111111111111111111111111111, B=00000000000000000000000000000000, Cin=0 : Sum= 00000000000011111111111111111111, Cout=1

time=161959.630 ps, A=11111111111111111111111111111111, B=00000000000000000000000000000000, Cin=0 : Sum= 00000000000111111111111111111111, Cout=1

time=162360.190 ps, A=11111111111111111111111111111111, B=00000000000000000000000000000000, Cin=0 : Sum= 00000000001111111111111111111111, Cout=1

time=162760.750 ps, A=11111111111111111111111111111111, B=00000000000000000000000000000000, Cin=0 : Sum= 00000000011111111111111111111111, Cout=1

time=163161.310 ps, A=11111111111111111111111111111111, B=00000000000000000000000000000000, Cin=0 : Sum= 00000000111111111111111111111111, Cout=1

time=164011.610 ps, A=11111111111111111111111111111111, B=00000000000000000000000000000000, Cin=0 : Sum= 00000001111111111111111111111111, Cout=1

time=164412.170 ps, A=11111111111111111111111111111111, B=00000000000000000000000000000000, Cin=0 : Sum= 00000011111111111111111111111111, Cout=1

time=164812.730 ps, A=11111111111111111111111111111111, B=00000000000000000000000000000000, Cin=0 : Sum= 00000111111111111111111111111111, Cout=1

time=165213.290 ps, A=11111111111111111111111111111111, B=00000000000000000000000000000000, Cin=0 : Sum= 00001111111111111111111111111111, Cout=1

time=166063.590 ps, A=11111111111111111111111111111111, B=00000000000000000000000000000000, Cin=0 : Sum= 00011111111111111111111111111111, Cout=1

time=166464.150 ps, A=11111111111111111111111111111111, B=00000000000000000000000000000000, Cin=0 : Sum= 00111111111111111111111111111111, Cout=1

time=166864.710 ps, A=11111111111111111111111111111111, B=00000000000000000000000000000000, Cin=0 : Sum= 01111111111111111111111111111111, Cout=1

time=167265.270 ps, A=11111111111111111111111111111111, B=00000000000000000000000000000000, Cin=0 : Sum= 11111111111111111111111111111111, Cout=1

time=167765.060 ps, A=11111111111111111111111111111111, B=00000000000000000000000000000000, Cin=0 : Sum= 11111111111111111111111111111111, Cout=0

# exit 0
