rca32/isim.log
ISim log file
Running: /home/rcetin/workspace/ISE_workspace/rca32/rca32_tb_isim_beh.exe -intstyle ise -gui -tclbatch isim.cmd -wdb /home/rcetin/workspace/ISE_workspace/rca32/rca32_tb_isim_beh.wdb 
ISim P.20131013 (signature 0xfbc00daa)
----------------------------------------------------------------------
INFO:Security:51 - The XILINXD_LICENSE_FILE environment variable is not set.
INFO:Security:53 - The LM_LICENSE_FILE environment variable is not set.
INFO:Security:68a - user is rcetin, on host unknown.
WARNING:Security:43 - No license file was found in the standard Xilinx license directory.
WARNING:Security:44 - Since no license file was found,
       please run the Xilinx License Configuration Manager
       (xlcm or "Manage Xilinx Licenses")
       to assist in obtaining a license.
ERROR:Security:14 - No feature was available for 'ISIM'.

No such feature exists.
Feature:       ISIM
License path:  /home/rcetin/.Xilinx/*.lic:/opt/Xilinx/14.7/ISE_DS/ISE//data/*.lic:/opt/Xilinx/14.7/ISE_DS/ISE//coregen/core_licenses/Xilinx.lic:/opt/Xilinx/14.7/ISE_DS/ISE//coregen/core_licenses/XilinxFree.lic:
FLEXnet Licensing error:-5,357
For further information, refer to the FLEXnet Licensing documentation,
available at "www.flexerasoftware.com".
----------------------------------------------------------------------
WARNING: A full ISim License cannot be checked out due to the issues listed above. Please use Xilinx License Configuration Manager to fix these issues in order to check out a full ISim license.
WARNING: ISim will run in Lite mode. Please refer to the ISim documentation for more information on the differences between the Lite and the Full version.
This is a Lite version of ISim.
Time resolution is 1 fs
# onerror resume
# wave add /
# run 200ns
Simulator is doing circuit initialization process.
                   0 << Starting the Simulation >>
Finished circuit initialization process.
time=0.000 ps, A=00000000000000000000000000000000, B=00000000000000000000000000000000, Cin=0 : Sum= xxxxxxxxxxxxxxxxxxxxxxxxxxxxxxxx, Cout=x

time=613.920 ps, A=00000000000000000000000000000000, B=00000000000000000000000000000000, Cin=0 : Sum= xxxxxxxxxxxxxxxxxxxxxxxxxxxxxxx0, Cout=x

time=1157.260 ps, A=00000000000000000000000000000000, B=00000000000000000000000000000000, Cin=0 : Sum= xxxxxxxxxxxxxxxxxxxxxxxxxxxxxxx0, Cout=0

time=1464.220 ps, A=00000000000000000000000000000000, B=00000000000000000000000000000000, Cin=0 : Sum= 00000000000000000000000000000000, Cout=0

time=50000.000 ps, A=00000000000111110000000000011111, B=00000000000001100000000000001100, Cin=0 : Sum= 00000000000000000000000000000000, Cout=0

time=50701.020 ps, A=00000000000111110000000000011111, B=00000000000001100000000000001100, Cin=0 : Sum= 00000000000110010000000000010011, Cout=0

time=51218.270 ps, A=00000000000111110000000000011111, B=00000000000001100000000000001100, Cin=0 : Sum= 00000000000100010000000000000011, Cout=0

time=51261.820 ps, A=00000000000111110000000000011111, B=00000000000001100000000000001100, Cin=0 : Sum= 00000000000101010000000000001011, Cout=0

time=52129.580 ps, A=00000000000111110000000000011111, B=00000000000001100000000000001100, Cin=0 : Sum= 00000000000001010000000000001011, Cout=0

time=52173.130 ps, A=00000000000111110000000000011111, B=00000000000001100000000000001100, Cin=0 : Sum= 00000000000001010000000000101011, Cout=0

time=53084.440 ps, A=00000000000111110000000000011111, B=00000000000001100000000000001100, Cin=0 : Sum= 00000000001001010000000000101011, Cout=0

time=100000.000 ps, A=11111111111111111111111111111111, B=00000000000000000000000000000000, Cin=1 : Sum= 00000000001001010000000000101011, Cout=0

time=100306.960 ps, A=11111111111111111111111111111111, B=00000000000000000000000000000000, Cin=1 : Sum= 00000000001001010000000000101010, Cout=0

time=100657.470 ps, A=11111111111111111111111111111111, B=00000000000000000000000000000000, Cin=1 : Sum= 00000000000000010000000000000010, Cout=0

time=100701.020 ps, A=11111111111111111111111111111111, B=00000000000000000000000000000000, Cin=1 : Sum= 11111111110000111111111111000110, Cout=0

time=101200.810 ps, A=11111111111111111111111111111111, B=00000000000000000000000000000000, Cin=1 : Sum= 11111111110011111111111111011110, Cout=0

time=101218.270 ps, A=11111111111111111111111111111111, B=00000000000000000000000000000000, Cin=1 : Sum= 11111111110011111111111111011100, Cout=0

time=101568.780 ps, A=11111111111111111111111111111111, B=00000000000000000000000000000000, Cin=1 : Sum= 11111111100011111111111110011100, Cout=0

time=102051.110 ps, A=11111111111111111111111111111111, B=00000000000000000000000000000000, Cin=1 : Sum= 11111111100111111111111110111100, Cout=0

time=102129.580 ps, A=11111111111111111111111111111111, B=00000000000000000000000000000000, Cin=1 : Sum= 11111111100111111111111110111000, Cout=0

time=102480.090 ps, A=11111111111111111111111111111111, B=00000000000000000000000000000000, Cin=1 : Sum= 11111111000111111111111100111000, Cout=0

time=102901.410 ps, A=11111111111111111111111111111111, B=00000000000000000000000000000000, Cin=1 : Sum= 11111111001111111111111101111000, Cout=0

time=103040.890 ps, A=11111111111111111111111111111111, B=00000000000000000000000000000000, Cin=1 : Sum= 11111111001111111111111101110000, Cout=0

time=103391.400 ps, A=11111111111111111111111111111111, B=00000000000000000000000000000000, Cin=1 : Sum= 11111110001111111111111001110000, Cout=0

time=103751.710 ps, A=11111111111111111111111111111111, B=00000000000000000000000000000000, Cin=1 : Sum= 11111110011111111111111011110000, Cout=0

time=103952.200 ps, A=11111111111111111111111111111111, B=00000000000000000000000000000000, Cin=1 : Sum= 11111110011111111111111011100000, Cout=0

time=104302.710 ps, A=11111111111111111111111111111111, B=00000000000000000000000000000000, Cin=1 : Sum= 11111100011111111111110011100000, Cout=0

time=104602.010 ps, A=11111111111111111111111111111111, B=00000000000000000000000000000000, Cin=1 : Sum= 11111100111111111111110111100000, Cout=0

time=104863.510 ps, A=11111111111111111111111111111111, B=00000000000000000000000000000000, Cin=1 : Sum= 11111100111111111111110111000000, Cout=0

time=105214.020 ps, A=11111111111111111111111111111111, B=00000000000000000000000000000000, Cin=1 : Sum= 11111000111111111111100111000000, Cout=0

time=105452.310 ps, A=11111111111111111111111111111111, B=00000000000000000000000000000000, Cin=1 : Sum= 11111001111111111111101111000000, Cout=0

time=105774.820 ps, A=11111111111111111111111111111111, B=00000000000000000000000000000000, Cin=1 : Sum= 11111001111111111111101110000000, Cout=0

time=106125.330 ps, A=11111111111111111111111111111111, B=00000000000000000000000000000000, Cin=1 : Sum= 11110001111111111111001110000000, Cout=0

time=106302.610 ps, A=11111111111111111111111111111111, B=00000000000000000000000000000000, Cin=1 : Sum= 11110011111111111111011110000000, Cout=0

time=106686.130 ps, A=11111111111111111111111111111111, B=00000000000000000000000000000000, Cin=1 : Sum= 11110011111111111111011100000000, Cout=0

time=107036.640 ps, A=11111111111111111111111111111111, B=00000000000000000000000000000000, Cin=1 : Sum= 11100011111111111110011100000000, Cout=0

time=107152.910 ps, A=11111111111111111111111111111111, B=00000000000000000000000000000000, Cin=1 : Sum= 11100111111111111110111100000000, Cout=0

time=107597.440 ps, A=11111111111111111111111111111111, B=00000000000000000000000000000000, Cin=1 : Sum= 11100111111111111110111000000000, Cout=0

time=107947.950 ps, A=11111111111111111111111111111111, B=00000000000000000000000000000000, Cin=1 : Sum= 11000111111111111100111000000000, Cout=0

time=108003.210 ps, A=11111111111111111111111111111111, B=00000000000000000000000000000000, Cin=1 : Sum= 11001111111111111101111000000000, Cout=0

time=108508.750 ps, A=11111111111111111111111111111111, B=00000000000000000000000000000000, Cin=1 : Sum= 11001111111111111101110000000000, Cout=0

time=108853.510 ps, A=11111111111111111111111111111111, B=00000000000000000000000000000000, Cin=1 : Sum= 11011111111111111111110000000000, Cout=0

time=108859.260 ps, A=11111111111111111111111111111111, B=00000000000000000000000000000000, Cin=1 : Sum= 10011111111111111011110000000000, Cout=0

time=109420.060 ps, A=11111111111111111111111111111111, B=00000000000000000000000000000000, Cin=1 : Sum= 10011111111111111011100000000000, Cout=0

time=109703.810 ps, A=11111111111111111111111111111111, B=00000000000000000000000000000000, Cin=1 : Sum= 10111111111111111111100000000000, Cout=0

time=109770.570 ps, A=11111111111111111111111111111111, B=00000000000000000000000000000000, Cin=1 : Sum= 00111111111111110111100000000000, Cout=0

time=110331.370 ps, A=11111111111111111111111111111111, B=00000000000000000000000000000000, Cin=1 : Sum= 00111111111111110111000000000000, Cout=0

time=110374.920 ps, A=11111111111111111111111111111111, B=00000000000000000000000000000000, Cin=1 : Sum= 00111111111111110111000000000000, Cout=1

time=110554.110 ps, A=11111111111111111111111111111111, B=00000000000000000000000000000000, Cin=1 : Sum= 01111111111111111111000000000000, Cout=1

time=110681.880 ps, A=11111111111111111111111111111111, B=00000000000000000000000000000000, Cin=1 : Sum= 01111111111111101111000000000000, Cout=1

time=111242.680 ps, A=11111111111111111111111111111111, B=00000000000000000000000000000000, Cin=1 : Sum= 01111111111111101110000000000000, Cout=1

time=111404.410 ps, A=11111111111111111111111111111111, B=00000000000000000000000000000000, Cin=1 : Sum= 11111111111111111110000000000000, Cout=1

time=111593.190 ps, A=11111111111111111111111111111111, B=00000000000000000000000000000000, Cin=1 : Sum= 11111111111111011110000000000000, Cout=1

time=111904.200 ps, A=11111111111111111111111111111111, B=00000000000000000000000000000000, Cin=1 : Sum= 11111111111111011110000000000000, Cout=0

time=112153.990 ps, A=11111111111111111111111111111111, B=00000000000000000000000000000000, Cin=1 : Sum= 11111111111111011100000000000000, Cout=0

time=112254.710 ps, A=11111111111111111111111111111111, B=00000000000000000000000000000000, Cin=1 : Sum= 11111111111111111100000000000000, Cout=0

time=112504.500 ps, A=11111111111111111111111111111111, B=00000000000000000000000000000000, Cin=1 : Sum= 11111111111110111100000000000000, Cout=0

time=113065.300 ps, A=11111111111111111111111111111111, B=00000000000000000000000000000000, Cin=1 : Sum= 11111111111110111000000000000000, Cout=0

time=113105.010 ps, A=11111111111111111111111111111111, B=00000000000000000000000000000000, Cin=1 : Sum= 11111111111111111000000000000000, Cout=0

time=113415.810 ps, A=11111111111111111111111111111111, B=00000000000000000000000000000000, Cin=1 : Sum= 11111111111101111000000000000000, Cout=0

time=113955.310 ps, A=11111111111111111111111111111111, B=00000000000000000000000000000000, Cin=1 : Sum= 11111111111111111000000000000000, Cout=0

time=113976.610 ps, A=11111111111111111111111111111111, B=00000000000000000000000000000000, Cin=1 : Sum= 11111111111111110000000000000000, Cout=0

time=114327.120 ps, A=11111111111111111111111111111111, B=00000000000000000000000000000000, Cin=1 : Sum= 11111111111011110000000000000000, Cout=0

time=114887.920 ps, A=11111111111111111111111111111111, B=00000000000000000000000000000000, Cin=1 : Sum= 11111111111011100000000000000000, Cout=0

time=115238.430 ps, A=11111111111111111111111111111111, B=00000000000000000000000000000000, Cin=1 : Sum= 11111111110011100000000000000000, Cout=0

time=115799.230 ps, A=11111111111111111111111111111111, B=00000000000000000000000000000000, Cin=1 : Sum= 11111111110011000000000000000000, Cout=0

time=116149.740 ps, A=11111111111111111111111111111111, B=00000000000000000000000000000000, Cin=1 : Sum= 11111111100011000000000000000000, Cout=0

time=116710.540 ps, A=11111111111111111111111111111111, B=00000000000000000000000000000000, Cin=1 : Sum= 11111111100010000000000000000000, Cout=0

time=117061.050 ps, A=11111111111111111111111111111111, B=00000000000000000000000000000000, Cin=1 : Sum= 11111111000010000000000000000000, Cout=0

time=117621.850 ps, A=11111111111111111111111111111111, B=00000000000000000000000000000000, Cin=1 : Sum= 11111111000000000000000000000000, Cout=0

time=117972.360 ps, A=11111111111111111111111111111111, B=00000000000000000000000000000000, Cin=1 : Sum= 11111110000000000000000000000000, Cout=0

time=118883.670 ps, A=11111111111111111111111111111111, B=00000000000000000000000000000000, Cin=1 : Sum= 11111100000000000000000000000000, Cout=0

time=119794.980 ps, A=11111111111111111111111111111111, B=00000000000000000000000000000000, Cin=1 : Sum= 11111000000000000000000000000000, Cout=0

time=120706.290 ps, A=11111111111111111111111111111111, B=00000000000000000000000000000000, Cin=1 : Sum= 11110000000000000000000000000000, Cout=0

time=121617.600 ps, A=11111111111111111111111111111111, B=00000000000000000000000000000000, Cin=1 : Sum= 11100000000000000000000000000000, Cout=0

time=122528.910 ps, A=11111111111111111111111111111111, B=00000000000000000000000000000000, Cin=1 : Sum= 11000000000000000000000000000000, Cout=0

time=123440.220 ps, A=11111111111111111111111111111111, B=00000000000000000000000000000000, Cin=1 : Sum= 10000000000000000000000000000000, Cout=0

time=124351.530 ps, A=11111111111111111111111111111111, B=00000000000000000000000000000000, Cin=1 : Sum= 00000000000000000000000000000000, Cout=0

time=124955.880 ps, A=11111111111111111111111111111111, B=00000000000000000000000000000000, Cin=1 : Sum= 00000000000000000000000000000000, Cout=1

time=150000.000 ps, A=11111111111111111111111111111111, B=00000000000000000000000000000000, Cin=0 : Sum= 00000000000000000000000000000000, Cout=1

time=150350.510 ps, A=11111111111111111111111111111111, B=00000000000000000000000000000000, Cin=0 : Sum= 00000000000000000000000000000001, Cout=1

time=151200.810 ps, A=11111111111111111111111111111111, B=00000000000000000000000000000000, Cin=0 : Sum= 00000000000000000000000000000011, Cout=1

time=152051.110 ps, A=11111111111111111111111111111111, B=00000000000000000000000000000000, Cin=0 : Sum= 00000000000000000000000000000111, Cout=1

time=152901.410 ps, A=11111111111111111111111111111111, B=00000000000000000000000000000000, Cin=0 : Sum= 00000000000000000000000000001111, Cout=1

time=153751.710 ps, A=11111111111111111111111111111111, B=00000000000000000000000000000000, Cin=0 : Sum= 00000000000000000000000000011111, Cout=1

time=154602.010 ps, A=11111111111111111111111111111111, B=00000000000000000000000000000000, Cin=0 : Sum= 00000000000000000000000000111111, Cout=1

time=155452.310 ps, A=11111111111111111111111111111111, B=00000000000000000000000000000000, Cin=0 : Sum= 00000000000000000000000001111111, Cout=1

time=156302.610 ps, A=11111111111111111111111111111111, B=00000000000000000000000000000000, Cin=0 : Sum= 00000000000000000000000011111111, Cout=1

time=157152.910 ps, A=11111111111111111111111111111111, B=00000000000000000000000000000000, Cin=0 : Sum= 00000000000000000000000111111111, Cout=1

time=158003.210 ps, A=11111111111111111111111111111111, B=00000000000000000000000000000000, Cin=0 : Sum= 00000000000000000000001111111111, Cout=1

time=158853.510 ps, A=11111111111111111111111111111111, B=00000000000000000000000000000000, Cin=0 : Sum= 00000000000000000000011111111111, Cout=1

time=159703.810 ps, A=11111111111111111111111111111111, B=00000000000000000000000000000000, Cin=0 : Sum= 00000000000000000000111111111111, Cout=1

time=160554.110 ps, A=11111111111111111111111111111111, B=00000000000000000000000000000000, Cin=0 : Sum= 00000000000000000001111111111111, Cout=1

time=161404.410 ps, A=11111111111111111111111111111111, B=00000000000000000000000000000000, Cin=0 : Sum= 00000000000000000011111111111111, Cout=1

time=162254.710 ps, A=11111111111111111111111111111111, B=00000000000000000000000000000000, Cin=0 : Sum= 00000000000000000111111111111111, Cout=1

time=163105.010 ps, A=11111111111111111111111111111111, B=00000000000000000000000000000000, Cin=0 : Sum= 00000000000000001111111111111111, Cout=1

time=163955.310 ps, A=11111111111111111111111111111111, B=00000000000000000000000000000000, Cin=0 : Sum= 00000000000000011111111111111111, Cout=1

time=164805.610 ps, A=11111111111111111111111111111111, B=00000000000000000000000000000000, Cin=0 : Sum= 00000000000000111111111111111111, Cout=1

time=165655.910 ps, A=11111111111111111111111111111111, B=00000000000000000000000000000000, Cin=0 : Sum= 00000000000001111111111111111111, Cout=1

time=166506.210 ps, A=11111111111111111111111111111111, B=00000000000000000000000000000000, Cin=0 : Sum= 00000000000011111111111111111111, Cout=1

time=167356.510 ps, A=11111111111111111111111111111111, B=00000000000000000000000000000000, Cin=0 : Sum= 00000000000111111111111111111111, Cout=1

time=168206.810 ps, A=11111111111111111111111111111111, B=00000000000000000000000000000000, Cin=0 : Sum= 00000000001111111111111111111111, Cout=1

time=169057.110 ps, A=11111111111111111111111111111111, B=00000000000000000000000000000000, Cin=0 : Sum= 00000000011111111111111111111111, Cout=1

time=169907.410 ps, A=11111111111111111111111111111111, B=00000000000000000000000000000000, Cin=0 : Sum= 00000000111111111111111111111111, Cout=1

time=170757.710 ps, A=11111111111111111111111111111111, B=00000000000000000000000000000000, Cin=0 : Sum= 00000001111111111111111111111111, Cout=1

time=171608.010 ps, A=11111111111111111111111111111111, B=00000000000000000000000000000000, Cin=0 : Sum= 00000011111111111111111111111111, Cout=1

time=172458.310 ps, A=11111111111111111111111111111111, B=00000000000000000000000000000000, Cin=0 : Sum= 00000111111111111111111111111111, Cout=1

time=173308.610 ps, A=11111111111111111111111111111111, B=00000000000000000000000000000000, Cin=0 : Sum= 00001111111111111111111111111111, Cout=1

time=174158.910 ps, A=11111111111111111111111111111111, B=00000000000000000000000000000000, Cin=0 : Sum= 00011111111111111111111111111111, Cout=1

time=175009.210 ps, A=11111111111111111111111111111111, B=00000000000000000000000000000000, Cin=0 : Sum= 00111111111111111111111111111111, Cout=1

time=175859.510 ps, A=11111111111111111111111111111111, B=00000000000000000000000000000000, Cin=0 : Sum= 01111111111111111111111111111111, Cout=1

time=176709.810 ps, A=11111111111111111111111111111111, B=00000000000000000000000000000000, Cin=0 : Sum= 11111111111111111111111111111111, Cout=1

time=177209.600 ps, A=11111111111111111111111111111111, B=00000000000000000000000000000000, Cin=0 : Sum= 11111111111111111111111111111111, Cout=0

# exit 0
